539221 491191 470
697551 210035 509
958394 335023 525
657243 456471 509
820193 807828 450
724887 483265 509
694052 861067 525
805331 691215 504
872360 744023 525
12323 240661 443
626818 129108 509
944472 6583 525
35881 942905 525
352547 938743 525
764193 558530 509
133609 253559 443
841969 623946 525
558158 559805 284
723094 75193 509
363709 587262 470
662283 853652 525
234666 103880 443
722203 244736 509
518689 983185 525
818463 110978 509
244162 970372 525
631820 996111 525
756260 173125 509
45238 572193 470
560237 805883 509
991004 499799 525
303139 439660 449
297449 541766 470
820809 744043 468
895586 574871 525
317525 913760 525
61722 74674 330
683561 130216 509
69517 597699 470
833498 479923 509
617909 623710 372
609973 644000 509
342552 985936 525
803566 49660 509
584577 377962 470
950479 38194 525
684419 686752 354
205817 781080 509
437841 563101 470
387420 485204 449
34162 695305 509
887922 594032 525
365671 415331 449
832523 197817 509
892764 912337 476
874535 674631 525
438704 545155 470
149155 62800 375
784958 997835 525
856361 324489 525
111437 700618 509
260670 490561 449
631826 768426 504
546833 547783 377
257872 717207 509
188666 826870 509
346993 587490 470
831971 170534 509
553886 645456 509
194526 344401 443
634088 879194 525
27232 185381 383
716850 380486 509
794530 576699 509
676090 941296 525
271830 214139 443
709439 706277 349
45932 5965 324
682260 382239 509
451323 580623 470
184097 574287 470
79551 914470 525
338032 97703 443
64293 162539 383
104347 91092 341
183850 885034 525
123100 150536 375
684418 914854 525
371598 579343 470
888830 627688 525
285310 748820 509
846153 799722 525
780614 869384 525
426747 246330 449
847282 182485 525
167851 974929 525
160386 583244 470
296919 539160 470
434636 139998 449
153087 843576 525
434081 65377 449
129751 496160 449
409326 544979 470
949853 79761 525
381092 10037 443
289034 562455 470
868624 914891 476
759709 925876 525
133966 430392 449
957571 795996 525
278215 424245 449
517035 30667 470
808875 651229 504
848736 899392 445
67922 363512 443
463445 444781 444
641329 405597 509
93280 240978 443
855761 434134 525
765443 456910 509
431023 344301 449
65683 163832 383
433260 195176 449
72161 970632 525
852156 5188 525
985038 569914 525
675866 239318 509
47634 345844 443
669219 153810 509
593722 758952 509
622038 321537 470
43570 678585 509
966721 521290 525
455964 759587 509
707678 645133 504
612244 376498 470
2228 149737 375
692482 920329 525
597963 770009 509
475758 120777 449
712162 521776 509
731843 547730 509
172128 741414 509
623262 331422 470
486826 429095 444
355267 423896 449
410814 925238 525
783258 718677 468
977884 519444 525
219270 994591 525
379411 15096 443
537143 504029 470
632403 156906 509
719178 76168 509
741746 675277 504
85700 156179 383
635854 799048 504
563042 41053 470
397836 661020 509
315261 863664 525
69530 476757 449
97624 80812 333
164080 172259 352
130349 111289 349
195418 395901 443
413409 531427 470
824894 346806 509
386648 485987 449
493283 450422 444
144314 951139 525
99919 825312 509
402208 536441 470
128859 797561 509
890410 683200 525
580402 283040 470
486232 311736 449
43170 652334 509
665500 76875 509
867957 845308 419
358508 556456 470
15962 840304 525
408715 414215 449
539317 494822 470
896532 807657 525
615123 895747 525
527787 665401 509
724961 793022 468
607687 709529 509
9729 278698 443
610175 968697 525
92733 271449 443
80118 854352 525
976597 611219 525
845878 75763 525
677157 951139 525
834703 633422 504
379302 163462 443
427798 623341 470
276325 814618 509
251603 964160 525
488385 417269 444
146834 902987 525
595262 162136 470
647901 393549 509
657567 258405 509
593813 517308 452
830410 193102 509
676496 311097 509
376295 144009 443
410574 66450 449
90065 373749 443
872646 694046 525
377961 292443 441
143843 486481 449
868387 415006 525
100552 883314 525
393005 293943 441
930757 371894 525
376517 36 443
868049 772474 525
424482 326534 449
409255 835964 509
794788 223632 509
154741 124578 375
6144 862057 525
688404 433219 509
833570 138815 509
438736 614763 470
220114 461390 449
765057 456514 509
444085 322091 449
458082 708809 509
708168 880596 525
7522 737485 509
545731 102290 470
206011 803850 509
588431 535247 452
792475 373940 509
14781 774720 509
410300 380916 449
712856 486380 509
472067 967382 525
707643 870747 525
219596 220396 355
465755 568370 470
625111 481008 470
107037 430321 449
496632 181499 449
502593 977833 525
862425 106154 525
